Title: Übergeordnete Informationen

----

Text: 

----

Fi-item: 

- 
  fi_label: Text Eintrag
  fihelp: ""
  fitype: textarea
  finame: ""

----

Fiitems: 

- 
  label: Text Eintrag
  help: ""
  value: ""
  sourceid: FI_TEXT
  fitype: fitextarea
  ficustom: ""

----

Novalues: 1