Title: inaktive Diagnosen

----

Fiitems: 

----

Text: 

----

Novalues: false

----

Sortable: false

----

Istemplate: false

----

Sourceid: C_DIAGNOSEN

----

Customsnippet: cus-diagnoses

----

Params: 