Title: Allgemeines

----

Fiitems: 

- 
  label: ist gesund
  hint: ""
  help: ""
  value: nein
  value2: ""
  sourceid: ""
  fireadonly: 'false'
  hidden: 'false'
  fitype: firadio
  ficustom: ""
  span: "3"
  selectvalues: ja, nein

----

Text: 

----

Novalues: false

----

Sortable: false

----

Istemplate: false

----

Sourceid: 

----

Customsnippet: 